^D:\FACULTATE\UNI-LABS\AN3_SEM1\GP\GP_PROJECT\X64\DEBUG\CAMERA.OBJ|D:\FACULTATE\UNI-LABS\AN3_SEM1\GP\GP_PROJECT\X64\DEBUG\CONTEXT.OBJ|D:\FACULTATE\UNI-LABS\AN3_SEM1\GP\GP_PROJECT\X64\DEBUG\DYNAMICBODYSTRATEGY.OBJ|D:\FACULTATE\UNI-LABS\AN3_SEM1\GP\GP_PROJECT\X64\DEBUG\MAIN.OBJ|D:\FACULTATE\UNI-LABS\AN3_SEM1\GP\GP_PROJECT\X64\DEBUG\MESH.OBJ|D:\FACULTATE\UNI-LABS\AN3_SEM1\GP\GP_PROJECT\X64\DEBUG\MODEL3D.OBJ|D:\FACULTATE\UNI-LABS\AN3_SEM1\GP\GP_PROJECT\X64\DEBUG\SHADER.OBJ|D:\FACULTATE\UNI-LABS\AN3_SEM1\GP\GP_PROJECT\X64\DEBUG\SKYBOX.OBJ|D:\FACULTATE\UNI-LABS\AN3_SEM1\GP\GP_PROJECT\X64\DEBUG\STATICBODYSTRATEGY.OBJ|D:\FACULTATE\UNI-LABS\AN3_SEM1\GP\GP_PROJECT\X64\DEBUG\STB_IMAGE.OBJ|D:\FACULTATE\UNI-LABS\AN3_SEM1\GP\GP_PROJECT\X64\DEBUG\TINY_OBJ_LOADER.OBJ|D:\FACULTATE\UNI-LABS\AN3_SEM1\GP\GP_PROJECT\X64\DEBUG\WINDOW.OBJ
D:\FACULTATE\UNI-LABS\AN3_SEM1\GP\GP_PROJECT\X64\DEBUG\GP_PROJECT.EXE
D:\FACULTATE\UNI-LABS\AN3_SEM1\GP\GP_PROJECT\X64\DEBUG\GP_PROJECT.ILK
D:\FACULTATE\UNI-LABS\AN3_SEM1\GP\GP_PROJECT\X64\DEBUG\GP_PROJECT.PDB
^D:\REPOS\GP_PROJECT\GP_PROJECT\X64\DEBUG\CAMERA.OBJ|D:\REPOS\GP_PROJECT\GP_PROJECT\X64\DEBUG\CONTEXT.OBJ|D:\REPOS\GP_PROJECT\GP_PROJECT\X64\DEBUG\DYNAMICBODYSTRATEGY.OBJ|D:\REPOS\GP_PROJECT\GP_PROJECT\X64\DEBUG\MAIN.OBJ|D:\REPOS\GP_PROJECT\GP_PROJECT\X64\DEBUG\MESH.OBJ|D:\REPOS\GP_PROJECT\GP_PROJECT\X64\DEBUG\MODEL3D.OBJ|D:\REPOS\GP_PROJECT\GP_PROJECT\X64\DEBUG\SHADER.OBJ|D:\REPOS\GP_PROJECT\GP_PROJECT\X64\DEBUG\SKYBOX.OBJ|D:\REPOS\GP_PROJECT\GP_PROJECT\X64\DEBUG\STATICBODYSTRATEGY.OBJ|D:\REPOS\GP_PROJECT\GP_PROJECT\X64\DEBUG\STB_IMAGE.OBJ|D:\REPOS\GP_PROJECT\GP_PROJECT\X64\DEBUG\TINY_OBJ_LOADER.OBJ|D:\REPOS\GP_PROJECT\GP_PROJECT\X64\DEBUG\WINDOW.OBJ
D:\REPOS\GP_PROJECT\GP_PROJECT\X64\DEBUG\GP_PROJECT.EXE
D:\REPOS\GP_PROJECT\GP_PROJECT\X64\DEBUG\GP_PROJECT.ILK
D:\REPOS\GP_PROJECT\GP_PROJECT\X64\DEBUG\GP_PROJECT.PDB
