^D:\FACULTATE\UNI-LABS\AN3_SEM1\GP\GP_PROJECT\X64\DEBUG\CAMERA.OBJ|D:\FACULTATE\UNI-LABS\AN3_SEM1\GP\GP_PROJECT\X64\DEBUG\CONTEXT.OBJ|D:\FACULTATE\UNI-LABS\AN3_SEM1\GP\GP_PROJECT\X64\DEBUG\DYNAMICBODYSTRATEGY.OBJ|D:\FACULTATE\UNI-LABS\AN3_SEM1\GP\GP_PROJECT\X64\DEBUG\MAIN.OBJ|D:\FACULTATE\UNI-LABS\AN3_SEM1\GP\GP_PROJECT\X64\DEBUG\MESH.OBJ|D:\FACULTATE\UNI-LABS\AN3_SEM1\GP\GP_PROJECT\X64\DEBUG\MODEL3D.OBJ|D:\FACULTATE\UNI-LABS\AN3_SEM1\GP\GP_PROJECT\X64\DEBUG\SHADER.OBJ|D:\FACULTATE\UNI-LABS\AN3_SEM1\GP\GP_PROJECT\X64\DEBUG\SKYBOX.OBJ|D:\FACULTATE\UNI-LABS\AN3_SEM1\GP\GP_PROJECT\X64\DEBUG\STATICBODYSTRATEGY.OBJ|D:\FACULTATE\UNI-LABS\AN3_SEM1\GP\GP_PROJECT\X64\DEBUG\STB_IMAGE.OBJ|D:\FACULTATE\UNI-LABS\AN3_SEM1\GP\GP_PROJECT\X64\DEBUG\TINY_OBJ_LOADER.OBJ|D:\FACULTATE\UNI-LABS\AN3_SEM1\GP\GP_PROJECT\X64\DEBUG\WINDOW.OBJ
C:\PROGRAM FILES (X86)\WINDOWS KITS\10\LIB\10.0.19041.0\UM\X64\OPENGL32.LIB
C:\USERS\SEBAS\DOCUMENTS\OPENGL\LIB\DEBUG\GLFW3.LIB
C:\USERS\SEBAS\DOCUMENTS\OPENGL\LIB\DEBUG\LIBGLEW32D.LIB
C:\PROGRAM FILES (X86)\WINDOWS KITS\10\LIB\10.0.19041.0\UM\X64\KERNEL32.LIB
C:\PROGRAM FILES (X86)\WINDOWS KITS\10\LIB\10.0.19041.0\UM\X64\USER32.LIB
C:\PROGRAM FILES (X86)\WINDOWS KITS\10\LIB\10.0.19041.0\UM\X64\GDI32.LIB
C:\PROGRAM FILES (X86)\WINDOWS KITS\10\LIB\10.0.19041.0\UM\X64\WINSPOOL.LIB
C:\PROGRAM FILES (X86)\WINDOWS KITS\10\LIB\10.0.19041.0\UM\X64\COMDLG32.LIB
C:\PROGRAM FILES (X86)\WINDOWS KITS\10\LIB\10.0.19041.0\UM\X64\ADVAPI32.LIB
C:\PROGRAM FILES (X86)\WINDOWS KITS\10\LIB\10.0.19041.0\UM\X64\SHELL32.LIB
C:\PROGRAM FILES (X86)\WINDOWS KITS\10\LIB\10.0.19041.0\UM\X64\OLE32.LIB
C:\PROGRAM FILES (X86)\WINDOWS KITS\10\LIB\10.0.19041.0\UM\X64\OLEAUT32.LIB
C:\PROGRAM FILES (X86)\WINDOWS KITS\10\LIB\10.0.19041.0\UM\X64\UUID.LIB
C:\PROGRAM FILES (X86)\WINDOWS KITS\10\LIB\10.0.19041.0\UM\X64\ODBC32.LIB
C:\PROGRAM FILES (X86)\WINDOWS KITS\10\LIB\10.0.19041.0\UM\X64\ODBCCP32.LIB
D:\FACULTATE\UNI-LABS\AN3_SEM1\GP\GP_PROJECT\X64\DEBUG\CAMERA.OBJ
D:\FACULTATE\UNI-LABS\AN3_SEM1\GP\GP_PROJECT\X64\DEBUG\CONTEXT.OBJ
D:\FACULTATE\UNI-LABS\AN3_SEM1\GP\GP_PROJECT\X64\DEBUG\DYNAMICBODYSTRATEGY.OBJ
D:\FACULTATE\UNI-LABS\AN3_SEM1\GP\GP_PROJECT\X64\DEBUG\MAIN.OBJ
D:\FACULTATE\UNI-LABS\AN3_SEM1\GP\GP_PROJECT\X64\DEBUG\MESH.OBJ
D:\FACULTATE\UNI-LABS\AN3_SEM1\GP\GP_PROJECT\X64\DEBUG\MODEL3D.OBJ
D:\FACULTATE\UNI-LABS\AN3_SEM1\GP\GP_PROJECT\X64\DEBUG\SHADER.OBJ
D:\FACULTATE\UNI-LABS\AN3_SEM1\GP\GP_PROJECT\X64\DEBUG\SKYBOX.OBJ
D:\FACULTATE\UNI-LABS\AN3_SEM1\GP\GP_PROJECT\X64\DEBUG\STATICBODYSTRATEGY.OBJ
D:\FACULTATE\UNI-LABS\AN3_SEM1\GP\GP_PROJECT\X64\DEBUG\STB_IMAGE.OBJ
D:\FACULTATE\UNI-LABS\AN3_SEM1\GP\GP_PROJECT\X64\DEBUG\TINY_OBJ_LOADER.OBJ
D:\FACULTATE\UNI-LABS\AN3_SEM1\GP\GP_PROJECT\X64\DEBUG\WINDOW.OBJ
C:\WINDOWS\SYSTEM32\TZRES.DLL
C:\WINDOWS\GLOBALIZATION\SORTING\SORTDEFAULT.NLS
C:\PROGRAM FILES (X86)\MICROSOFT VISUAL STUDIO\2019\COMMUNITY\VC\TOOLS\MSVC\14.29.30133\LIB\X64\MSVCPRTD.LIB
C:\PROGRAM FILES (X86)\MICROSOFT VISUAL STUDIO\2019\COMMUNITY\VC\TOOLS\MSVC\14.29.30133\LIB\X64\MSVCRTD.LIB
C:\PROGRAM FILES (X86)\MICROSOFT VISUAL STUDIO\2019\COMMUNITY\VC\TOOLS\MSVC\14.29.30133\LIB\X64\OLDNAMES.LIB
C:\PROGRAM FILES (X86)\MICROSOFT VISUAL STUDIO\2019\COMMUNITY\VC\TOOLS\MSVC\14.29.30133\LIB\X64\VCRUNTIMED.LIB
C:\PROGRAM FILES (X86)\WINDOWS KITS\10\LIB\10.0.19041.0\UCRT\X64\UCRTD.LIB
C:\PROGRAM FILES (X86)\MICROSOFT VISUAL STUDIO\2019\COMMUNITY\VC\TOOLS\MSVC\14.29.30133\BIN\HOSTX86\X64\CVTRES.EXE
C:\PROGRAM FILES (X86)\MICROSOFT VISUAL STUDIO\2019\COMMUNITY\VC\TOOLS\MSVC\14.29.30133\BIN\HOSTX86\X64\MSPDBSRV.EXE
C:\PROGRAM FILES (X86)\MICROSOFT VISUAL STUDIO\2019\COMMUNITY\VC\TOOLS\MSVC\14.29.30133\BIN\HOSTX86\X64\1033\LINKUI.DLL
^D:\REPOS\GP_PROJECT\GP_PROJECT\X64\DEBUG\CAMERA.OBJ|D:\REPOS\GP_PROJECT\GP_PROJECT\X64\DEBUG\CONTEXT.OBJ|D:\REPOS\GP_PROJECT\GP_PROJECT\X64\DEBUG\DYNAMICBODYSTRATEGY.OBJ|D:\REPOS\GP_PROJECT\GP_PROJECT\X64\DEBUG\MAIN.OBJ|D:\REPOS\GP_PROJECT\GP_PROJECT\X64\DEBUG\MESH.OBJ|D:\REPOS\GP_PROJECT\GP_PROJECT\X64\DEBUG\MODEL3D.OBJ|D:\REPOS\GP_PROJECT\GP_PROJECT\X64\DEBUG\SHADER.OBJ|D:\REPOS\GP_PROJECT\GP_PROJECT\X64\DEBUG\SKYBOX.OBJ|D:\REPOS\GP_PROJECT\GP_PROJECT\X64\DEBUG\STATICBODYSTRATEGY.OBJ|D:\REPOS\GP_PROJECT\GP_PROJECT\X64\DEBUG\STB_IMAGE.OBJ|D:\REPOS\GP_PROJECT\GP_PROJECT\X64\DEBUG\TINY_OBJ_LOADER.OBJ|D:\REPOS\GP_PROJECT\GP_PROJECT\X64\DEBUG\WINDOW.OBJ
C:\PROGRAM FILES (X86)\WINDOWS KITS\10\LIB\10.0.19041.0\UM\X64\OPENGL32.LIB
C:\USERS\SEBAS\DOCUMENTS\OPENGL\LIB\DEBUG\GLFW3.LIB
C:\USERS\SEBAS\DOCUMENTS\OPENGL\LIB\DEBUG\LIBGLEW32D.LIB
C:\PROGRAM FILES (X86)\WINDOWS KITS\10\LIB\10.0.19041.0\UM\X64\KERNEL32.LIB
C:\PROGRAM FILES (X86)\WINDOWS KITS\10\LIB\10.0.19041.0\UM\X64\USER32.LIB
C:\PROGRAM FILES (X86)\WINDOWS KITS\10\LIB\10.0.19041.0\UM\X64\GDI32.LIB
C:\PROGRAM FILES (X86)\WINDOWS KITS\10\LIB\10.0.19041.0\UM\X64\WINSPOOL.LIB
C:\PROGRAM FILES (X86)\WINDOWS KITS\10\LIB\10.0.19041.0\UM\X64\COMDLG32.LIB
C:\PROGRAM FILES (X86)\WINDOWS KITS\10\LIB\10.0.19041.0\UM\X64\ADVAPI32.LIB
C:\PROGRAM FILES (X86)\WINDOWS KITS\10\LIB\10.0.19041.0\UM\X64\SHELL32.LIB
C:\PROGRAM FILES (X86)\WINDOWS KITS\10\LIB\10.0.19041.0\UM\X64\OLE32.LIB
C:\PROGRAM FILES (X86)\WINDOWS KITS\10\LIB\10.0.19041.0\UM\X64\OLEAUT32.LIB
C:\PROGRAM FILES (X86)\WINDOWS KITS\10\LIB\10.0.19041.0\UM\X64\UUID.LIB
C:\PROGRAM FILES (X86)\WINDOWS KITS\10\LIB\10.0.19041.0\UM\X64\ODBC32.LIB
C:\PROGRAM FILES (X86)\WINDOWS KITS\10\LIB\10.0.19041.0\UM\X64\ODBCCP32.LIB
D:\REPOS\GP_PROJECT\GP_PROJECT\X64\DEBUG\CAMERA.OBJ
D:\REPOS\GP_PROJECT\GP_PROJECT\X64\DEBUG\CONTEXT.OBJ
D:\REPOS\GP_PROJECT\GP_PROJECT\X64\DEBUG\DYNAMICBODYSTRATEGY.OBJ
D:\REPOS\GP_PROJECT\GP_PROJECT\X64\DEBUG\MAIN.OBJ
D:\REPOS\GP_PROJECT\GP_PROJECT\X64\DEBUG\MESH.OBJ
D:\REPOS\GP_PROJECT\GP_PROJECT\X64\DEBUG\MODEL3D.OBJ
D:\REPOS\GP_PROJECT\GP_PROJECT\X64\DEBUG\SHADER.OBJ
D:\REPOS\GP_PROJECT\GP_PROJECT\X64\DEBUG\SKYBOX.OBJ
D:\REPOS\GP_PROJECT\GP_PROJECT\X64\DEBUG\STATICBODYSTRATEGY.OBJ
D:\REPOS\GP_PROJECT\GP_PROJECT\X64\DEBUG\STB_IMAGE.OBJ
D:\REPOS\GP_PROJECT\GP_PROJECT\X64\DEBUG\TINY_OBJ_LOADER.OBJ
D:\REPOS\GP_PROJECT\GP_PROJECT\X64\DEBUG\WINDOW.OBJ
C:\WINDOWS\SYSTEM32\TZRES.DLL
C:\WINDOWS\GLOBALIZATION\SORTING\SORTDEFAULT.NLS
C:\PROGRAM FILES (X86)\MICROSOFT VISUAL STUDIO\2019\COMMUNITY\VC\TOOLS\MSVC\14.29.30133\LIB\X64\MSVCPRTD.LIB
C:\PROGRAM FILES (X86)\MICROSOFT VISUAL STUDIO\2019\COMMUNITY\VC\TOOLS\MSVC\14.29.30133\LIB\X64\MSVCRTD.LIB
C:\PROGRAM FILES (X86)\MICROSOFT VISUAL STUDIO\2019\COMMUNITY\VC\TOOLS\MSVC\14.29.30133\LIB\X64\OLDNAMES.LIB
C:\PROGRAM FILES (X86)\MICROSOFT VISUAL STUDIO\2019\COMMUNITY\VC\TOOLS\MSVC\14.29.30133\LIB\X64\VCRUNTIMED.LIB
C:\PROGRAM FILES (X86)\WINDOWS KITS\10\LIB\10.0.19041.0\UCRT\X64\UCRTD.LIB
