# Blender MTL File: 'None'
# Material Count: 3

newmtl Fillers
Ns 0.000000
Ka 1.000000 1.000000 1.000000
Kd 0.000000 0.000000 0.000000
Ks 0.000000 0.000000 0.000000
Ke 0.000000 0.000000 0.000000
Ni 1.000000
d 1.000000
illum 1

newmtl Mat
Ns 50.000007
Ka 1.000000 1.000000 1.000000
Kd 0.800000 0.800000 0.800000
Ks 1.000000 1.000000 1.000000
Ke 0.000000 0.000000 0.000000
Ni 1.000000
d 1.000000
illum 3
map_Kd formula1_DefaultMaterial_Diffuse.png
map_Ks formula1_DefaultMaterial_Specular.png

newmtl Mirrors
Ns 99.999988
Ka 1.000000 1.000000 1.000000
Kd 1.000000 1.000000 1.000000
Ks 1.000000 1.000000 1.000000
Ke 0.000000 0.000000 0.000000
Ni 1.000000
d 1.000000
illum 3
